<svg width="465" height="345" viewBox="0 0 465 345" fill="none" xmlns="http://www.w3.org/2000/svg">
<path d="M15 157.5C15 161.642 11.6421 165 7.5 165C3.35786 165 0 161.642 0 157.5C0 153.358 3.35786 150 7.5 150C11.6421 150 15 153.358 15 157.5Z" fill="#E4C1F9"/>
<path d="M45 157.5C45 161.642 41.6421 165 37.5 165C33.3579 165 30 161.642 30 157.5C30 153.358 33.3579 150 37.5 150C41.6421 150 45 153.358 45 157.5Z" fill="#E4C1F9"/>
<path d="M75 157.5C75 161.642 71.6421 165 67.5 165C63.3579 165 60 161.642 60 157.5C60 153.358 63.3579 150 67.5 150C71.6421 150 75 153.358 75 157.5Z" fill="#E4C1F9"/>
<path d="M105 157.5C105 161.642 101.642 165 97.5 165C93.3579 165 90 161.642 90 157.5C90 153.358 93.3579 150 97.5 150C101.642 150 105 153.358 105 157.5Z" fill="#E4C1F9"/>
<path d="M135 157.5C135 161.642 131.642 165 127.5 165C123.358 165 120 161.642 120 157.5C120 153.358 123.358 150 127.5 150C131.642 150 135 153.358 135 157.5Z" fill="#E4C1F9"/>
<path d="M165 157.5C165 161.642 161.642 165 157.5 165C153.358 165 150 161.642 150 157.5C150 153.358 153.358 150 157.5 150C161.642 150 165 153.358 165 157.5Z" fill="#E4C1F9"/>
<path d="M195 157.5C195 161.642 191.642 165 187.5 165C183.358 165 180 161.642 180 157.5C180 153.358 183.358 150 187.5 150C191.642 150 195 153.358 195 157.5Z" fill="#E4C1F9"/>
<path d="M225 157.5C225 161.642 221.642 165 217.5 165C213.358 165 210 161.642 210 157.5C210 153.358 213.358 150 217.5 150C221.642 150 225 153.358 225 157.5Z" fill="#E4C1F9"/>
<path d="M15 127.5C15 131.642 11.6421 135 7.5 135C3.35786 135 0 131.642 0 127.5C0 123.358 3.35786 120 7.5 120C11.6421 120 15 123.358 15 127.5Z" fill="#E4C1F9"/>
<path d="M45 127.5C45 131.642 41.6421 135 37.5 135C33.3579 135 30 131.642 30 127.5C30 123.358 33.3579 120 37.5 120C41.6421 120 45 123.358 45 127.5Z" fill="#E4C1F9"/>
<path d="M75 127.5C75 131.642 71.6421 135 67.5 135C63.3579 135 60 131.642 60 127.5C60 123.358 63.3579 120 67.5 120C71.6421 120 75 123.358 75 127.5Z" fill="#E4C1F9"/>
<path d="M105 127.5C105 131.642 101.642 135 97.5 135C93.3579 135 90 131.642 90 127.5C90 123.358 93.3579 120 97.5 120C101.642 120 105 123.358 105 127.5Z" fill="#E4C1F9"/>
<path d="M135 127.5C135 131.642 131.642 135 127.5 135C123.358 135 120 131.642 120 127.5C120 123.358 123.358 120 127.5 120C131.642 120 135 123.358 135 127.5Z" fill="#E4C1F9"/>
<path d="M165 127.5C165 131.642 161.642 135 157.5 135C153.358 135 150 131.642 150 127.5C150 123.358 153.358 120 157.5 120C161.642 120 165 123.358 165 127.5Z" fill="#E4C1F9"/>
<path d="M195 127.5C195 131.642 191.642 135 187.5 135C183.358 135 180 131.642 180 127.5C180 123.358 183.358 120 187.5 120C191.642 120 195 123.358 195 127.5Z" fill="#E4C1F9"/>
<path d="M225 127.5C225 131.642 221.642 135 217.5 135C213.358 135 210 131.642 210 127.5C210 123.358 213.358 120 217.5 120C221.642 120 225 123.358 225 127.5Z" fill="#E4C1F9"/>
<path d="M15 97.5C15 101.642 11.6421 105 7.5 105C3.35786 105 0 101.642 0 97.5C0 93.3579 3.35786 90 7.5 90C11.6421 90 15 93.3579 15 97.5Z" fill="#E4C1F9"/>
<path d="M45 97.5C45 101.642 41.6421 105 37.5 105C33.3579 105 30 101.642 30 97.5C30 93.3579 33.3579 90 37.5 90C41.6421 90 45 93.3579 45 97.5Z" fill="#E4C1F9"/>
<path d="M75 97.5C75 101.642 71.6421 105 67.5 105C63.3579 105 60 101.642 60 97.5C60 93.3579 63.3579 90 67.5 90C71.6421 90 75 93.3579 75 97.5Z" fill="#E4C1F9"/>
<path d="M105 97.5C105 101.642 101.642 105 97.5 105C93.3579 105 90 101.642 90 97.5C90 93.3579 93.3579 90 97.5 90C101.642 90 105 93.3579 105 97.5Z" fill="#E4C1F9"/>
<path d="M135 97.5C135 101.642 131.642 105 127.5 105C123.358 105 120 101.642 120 97.5C120 93.3579 123.358 90 127.5 90C131.642 90 135 93.3579 135 97.5Z" fill="#E4C1F9"/>
<path d="M165 97.5C165 101.642 161.642 105 157.5 105C153.358 105 150 101.642 150 97.5C150 93.3579 153.358 90 157.5 90C161.642 90 165 93.3579 165 97.5Z" fill="#E4C1F9"/>
<path d="M195 97.5C195 101.642 191.642 105 187.5 105C183.358 105 180 101.642 180 97.5C180 93.3579 183.358 90 187.5 90C191.642 90 195 93.3579 195 97.5Z" fill="#E4C1F9"/>
<path d="M225 97.5C225 101.642 221.642 105 217.5 105C213.358 105 210 101.642 210 97.5C210 93.3579 213.358 90 217.5 90C221.642 90 225 93.3579 225 97.5Z" fill="#E4C1F9"/>
<path d="M15 67.5C15 71.6421 11.6421 75 7.5 75C3.35786 75 0 71.6421 0 67.5C0 63.3579 3.35786 60 7.5 60C11.6421 60 15 63.3579 15 67.5Z" fill="#E4C1F9"/>
<path d="M45 67.5C45 71.6421 41.6421 75 37.5 75C33.3579 75 30 71.6421 30 67.5C30 63.3579 33.3579 60 37.5 60C41.6421 60 45 63.3579 45 67.5Z" fill="#E4C1F9"/>
<path d="M75 67.5C75 71.6421 71.6421 75 67.5 75C63.3579 75 60 71.6421 60 67.5C60 63.3579 63.3579 60 67.5 60C71.6421 60 75 63.3579 75 67.5Z" fill="#E4C1F9"/>
<path d="M105 67.5C105 71.6421 101.642 75 97.5 75C93.3579 75 90 71.6421 90 67.5C90 63.3579 93.3579 60 97.5 60C101.642 60 105 63.3579 105 67.5Z" fill="#E4C1F9"/>
<path d="M135 67.5C135 71.6421 131.642 75 127.5 75C123.358 75 120 71.6421 120 67.5C120 63.3579 123.358 60 127.5 60C131.642 60 135 63.3579 135 67.5Z" fill="#E4C1F9"/>
<path d="M165 67.5C165 71.6421 161.642 75 157.5 75C153.358 75 150 71.6421 150 67.5C150 63.3579 153.358 60 157.5 60C161.642 60 165 63.3579 165 67.5Z" fill="#E4C1F9"/>
<path d="M195 67.5C195 71.6421 191.642 75 187.5 75C183.358 75 180 71.6421 180 67.5C180 63.3579 183.358 60 187.5 60C191.642 60 195 63.3579 195 67.5Z" fill="#E4C1F9"/>
<path d="M225 67.5C225 71.6421 221.642 75 217.5 75C213.358 75 210 71.6421 210 67.5C210 63.3579 213.358 60 217.5 60C221.642 60 225 63.3579 225 67.5Z" fill="#E4C1F9"/>
<path d="M15 37.5C15 41.6421 11.6421 45 7.5 45C3.35786 45 0 41.6421 0 37.5C0 33.3579 3.35786 30 7.5 30C11.6421 30 15 33.3579 15 37.5Z" fill="#E4C1F9"/>
<path d="M45 37.5C45 41.6421 41.6421 45 37.5 45C33.3579 45 30 41.6421 30 37.5C30 33.3579 33.3579 30 37.5 30C41.6421 30 45 33.3579 45 37.5Z" fill="#E4C1F9"/>
<path d="M75 37.5C75 41.6421 71.6421 45 67.5 45C63.3579 45 60 41.6421 60 37.5C60 33.3579 63.3579 30 67.5 30C71.6421 30 75 33.3579 75 37.5Z" fill="#E4C1F9"/>
<path d="M105 37.5C105 41.6421 101.642 45 97.5 45C93.3579 45 90 41.6421 90 37.5C90 33.3579 93.3579 30 97.5 30C101.642 30 105 33.3579 105 37.5Z" fill="#E4C1F9"/>
<path d="M135 37.5C135 41.6421 131.642 45 127.5 45C123.358 45 120 41.6421 120 37.5C120 33.3579 123.358 30 127.5 30C131.642 30 135 33.3579 135 37.5Z" fill="#E4C1F9"/>
<path d="M165 37.5C165 41.6421 161.642 45 157.5 45C153.358 45 150 41.6421 150 37.5C150 33.3579 153.358 30 157.5 30C161.642 30 165 33.3579 165 37.5Z" fill="#E4C1F9"/>
<path d="M195 37.5C195 41.6421 191.642 45 187.5 45C183.358 45 180 41.6421 180 37.5C180 33.3579 183.358 30 187.5 30C191.642 30 195 33.3579 195 37.5Z" fill="#E4C1F9"/>
<path d="M225 37.5C225 41.6421 221.642 45 217.5 45C213.358 45 210 41.6421 210 37.5C210 33.3579 213.358 30 217.5 30C221.642 30 225 33.3579 225 37.5Z" fill="#E4C1F9"/>
<path d="M15 7.5C15 11.6421 11.6421 15 7.5 15C3.35786 15 0 11.6421 0 7.5C0 3.35786 3.35786 0 7.5 0C11.6421 0 15 3.35786 15 7.5Z" fill="#E4C1F9"/>
<path d="M45 7.5C45 11.6421 41.6421 15 37.5 15C33.3579 15 30 11.6421 30 7.5C30 3.35786 33.3579 0 37.5 0C41.6421 0 45 3.35786 45 7.5Z" fill="#E4C1F9"/>
<path d="M75 7.5C75 11.6421 71.6421 15 67.5 15C63.3579 15 60 11.6421 60 7.5C60 3.35786 63.3579 0 67.5 0C71.6421 0 75 3.35786 75 7.5Z" fill="#E4C1F9"/>
<path d="M105 7.5C105 11.6421 101.642 15 97.5 15C93.3579 15 90 11.6421 90 7.5C90 3.35786 93.3579 0 97.5 0C101.642 0 105 3.35786 105 7.5Z" fill="#E4C1F9"/>
<path d="M135 7.5C135 11.6421 131.642 15 127.5 15C123.358 15 120 11.6421 120 7.5C120 3.35786 123.358 0 127.5 0C131.642 0 135 3.35786 135 7.5Z" fill="#E4C1F9"/>
<path d="M165 7.5C165 11.6421 161.642 15 157.5 15C153.358 15 150 11.6421 150 7.5C150 3.35786 153.358 0 157.5 0C161.642 0 165 3.35786 165 7.5Z" fill="#E4C1F9"/>
<path d="M195 7.5C195 11.6421 191.642 15 187.5 15C183.358 15 180 11.6421 180 7.5C180 3.35786 183.358 0 187.5 0C191.642 0 195 3.35786 195 7.5Z" fill="#E4C1F9"/>
<path d="M225 7.5C225 11.6421 221.642 15 217.5 15C213.358 15 210 11.6421 210 7.5C210 3.35786 213.358 0 217.5 0C221.642 0 225 3.35786 225 7.5Z" fill="#E4C1F9"/>
<path d="M255 157.5C255 161.642 251.642 165 247.5 165C243.358 165 240 161.642 240 157.5C240 153.358 243.358 150 247.5 150C251.642 150 255 153.358 255 157.5Z" fill="#E4C1F9"/>
<path d="M285 157.5C285 161.642 281.642 165 277.5 165C273.358 165 270 161.642 270 157.5C270 153.358 273.358 150 277.5 150C281.642 150 285 153.358 285 157.5Z" fill="#E4C1F9"/>
<path d="M315 157.5C315 161.642 311.642 165 307.5 165C303.358 165 300 161.642 300 157.5C300 153.358 303.358 150 307.5 150C311.642 150 315 153.358 315 157.5Z" fill="#E4C1F9"/>
<path d="M345 157.5C345 161.642 341.642 165 337.5 165C333.358 165 330 161.642 330 157.5C330 153.358 333.358 150 337.5 150C341.642 150 345 153.358 345 157.5Z" fill="#E4C1F9"/>
<path d="M375 157.5C375 161.642 371.642 165 367.5 165C363.358 165 360 161.642 360 157.5C360 153.358 363.358 150 367.5 150C371.642 150 375 153.358 375 157.5Z" fill="#E4C1F9"/>
<path d="M405 157.5C405 161.642 401.642 165 397.5 165C393.358 165 390 161.642 390 157.5C390 153.358 393.358 150 397.5 150C401.642 150 405 153.358 405 157.5Z" fill="#E4C1F9"/>
<path d="M435 157.5C435 161.642 431.642 165 427.5 165C423.358 165 420 161.642 420 157.5C420 153.358 423.358 150 427.5 150C431.642 150 435 153.358 435 157.5Z" fill="#E4C1F9"/>
<path d="M465 157.5C465 161.642 461.642 165 457.5 165C453.358 165 450 161.642 450 157.5C450 153.358 453.358 150 457.5 150C461.642 150 465 153.358 465 157.5Z" fill="#E4C1F9"/>
<path d="M255 127.5C255 131.642 251.642 135 247.5 135C243.358 135 240 131.642 240 127.5C240 123.358 243.358 120 247.5 120C251.642 120 255 123.358 255 127.5Z" fill="#E4C1F9"/>
<path d="M285 127.5C285 131.642 281.642 135 277.5 135C273.358 135 270 131.642 270 127.5C270 123.358 273.358 120 277.5 120C281.642 120 285 123.358 285 127.5Z" fill="#E4C1F9"/>
<path d="M315 127.5C315 131.642 311.642 135 307.5 135C303.358 135 300 131.642 300 127.5C300 123.358 303.358 120 307.5 120C311.642 120 315 123.358 315 127.5Z" fill="#E4C1F9"/>
<path d="M345 127.5C345 131.642 341.642 135 337.5 135C333.358 135 330 131.642 330 127.5C330 123.358 333.358 120 337.5 120C341.642 120 345 123.358 345 127.5Z" fill="#E4C1F9"/>
<path d="M375 127.5C375 131.642 371.642 135 367.5 135C363.358 135 360 131.642 360 127.5C360 123.358 363.358 120 367.5 120C371.642 120 375 123.358 375 127.5Z" fill="#E4C1F9"/>
<path d="M405 127.5C405 131.642 401.642 135 397.5 135C393.358 135 390 131.642 390 127.5C390 123.358 393.358 120 397.5 120C401.642 120 405 123.358 405 127.5Z" fill="#E4C1F9"/>
<path d="M435 127.5C435 131.642 431.642 135 427.5 135C423.358 135 420 131.642 420 127.5C420 123.358 423.358 120 427.5 120C431.642 120 435 123.358 435 127.5Z" fill="#E4C1F9"/>
<path d="M465 127.5C465 131.642 461.642 135 457.5 135C453.358 135 450 131.642 450 127.5C450 123.358 453.358 120 457.5 120C461.642 120 465 123.358 465 127.5Z" fill="#E4C1F9"/>
<path d="M255 97.5C255 101.642 251.642 105 247.5 105C243.358 105 240 101.642 240 97.5C240 93.3579 243.358 90 247.5 90C251.642 90 255 93.3579 255 97.5Z" fill="#E4C1F9"/>
<path d="M285 97.5C285 101.642 281.642 105 277.5 105C273.358 105 270 101.642 270 97.5C270 93.3579 273.358 90 277.5 90C281.642 90 285 93.3579 285 97.5Z" fill="#E4C1F9"/>
<path d="M315 97.5C315 101.642 311.642 105 307.5 105C303.358 105 300 101.642 300 97.5C300 93.3579 303.358 90 307.5 90C311.642 90 315 93.3579 315 97.5Z" fill="#E4C1F9"/>
<path d="M345 97.5C345 101.642 341.642 105 337.5 105C333.358 105 330 101.642 330 97.5C330 93.3579 333.358 90 337.5 90C341.642 90 345 93.3579 345 97.5Z" fill="#E4C1F9"/>
<path d="M375 97.5C375 101.642 371.642 105 367.5 105C363.358 105 360 101.642 360 97.5C360 93.3579 363.358 90 367.5 90C371.642 90 375 93.3579 375 97.5Z" fill="#E4C1F9"/>
<path d="M405 97.5C405 101.642 401.642 105 397.5 105C393.358 105 390 101.642 390 97.5C390 93.3579 393.358 90 397.5 90C401.642 90 405 93.3579 405 97.5Z" fill="#E4C1F9"/>
<path d="M435 97.5C435 101.642 431.642 105 427.5 105C423.358 105 420 101.642 420 97.5C420 93.3579 423.358 90 427.5 90C431.642 90 435 93.3579 435 97.5Z" fill="#E4C1F9"/>
<path d="M465 97.5C465 101.642 461.642 105 457.5 105C453.358 105 450 101.642 450 97.5C450 93.3579 453.358 90 457.5 90C461.642 90 465 93.3579 465 97.5Z" fill="#E4C1F9"/>
<path d="M255 67.5C255 71.6421 251.642 75 247.5 75C243.358 75 240 71.6421 240 67.5C240 63.3579 243.358 60 247.5 60C251.642 60 255 63.3579 255 67.5Z" fill="#E4C1F9"/>
<path d="M285 67.5C285 71.6421 281.642 75 277.5 75C273.358 75 270 71.6421 270 67.5C270 63.3579 273.358 60 277.5 60C281.642 60 285 63.3579 285 67.5Z" fill="#E4C1F9"/>
<path d="M315 67.5C315 71.6421 311.642 75 307.5 75C303.358 75 300 71.6421 300 67.5C300 63.3579 303.358 60 307.5 60C311.642 60 315 63.3579 315 67.5Z" fill="#E4C1F9"/>
<path d="M345 67.5C345 71.6421 341.642 75 337.5 75C333.358 75 330 71.6421 330 67.5C330 63.3579 333.358 60 337.5 60C341.642 60 345 63.3579 345 67.5Z" fill="#E4C1F9"/>
<path d="M375 67.5C375 71.6421 371.642 75 367.5 75C363.358 75 360 71.6421 360 67.5C360 63.3579 363.358 60 367.5 60C371.642 60 375 63.3579 375 67.5Z" fill="#E4C1F9"/>
<path d="M405 67.5C405 71.6421 401.642 75 397.5 75C393.358 75 390 71.6421 390 67.5C390 63.3579 393.358 60 397.5 60C401.642 60 405 63.3579 405 67.5Z" fill="#E4C1F9"/>
<path d="M435 67.5C435 71.6421 431.642 75 427.5 75C423.358 75 420 71.6421 420 67.5C420 63.3579 423.358 60 427.5 60C431.642 60 435 63.3579 435 67.5Z" fill="#E4C1F9"/>
<path d="M465 67.5C465 71.6421 461.642 75 457.5 75C453.358 75 450 71.6421 450 67.5C450 63.3579 453.358 60 457.5 60C461.642 60 465 63.3579 465 67.5Z" fill="#E4C1F9"/>
<path d="M255 37.5C255 41.6421 251.642 45 247.5 45C243.358 45 240 41.6421 240 37.5C240 33.3579 243.358 30 247.5 30C251.642 30 255 33.3579 255 37.5Z" fill="#E4C1F9"/>
<path d="M285 37.5C285 41.6421 281.642 45 277.5 45C273.358 45 270 41.6421 270 37.5C270 33.3579 273.358 30 277.5 30C281.642 30 285 33.3579 285 37.5Z" fill="#E4C1F9"/>
<path d="M315 37.5C315 41.6421 311.642 45 307.5 45C303.358 45 300 41.6421 300 37.5C300 33.3579 303.358 30 307.5 30C311.642 30 315 33.3579 315 37.5Z" fill="#E4C1F9"/>
<path d="M345 37.5C345 41.6421 341.642 45 337.5 45C333.358 45 330 41.6421 330 37.5C330 33.3579 333.358 30 337.5 30C341.642 30 345 33.3579 345 37.5Z" fill="#E4C1F9"/>
<path d="M375 37.5C375 41.6421 371.642 45 367.5 45C363.358 45 360 41.6421 360 37.5C360 33.3579 363.358 30 367.5 30C371.642 30 375 33.3579 375 37.5Z" fill="#E4C1F9"/>
<path d="M405 37.5C405 41.6421 401.642 45 397.5 45C393.358 45 390 41.6421 390 37.5C390 33.3579 393.358 30 397.5 30C401.642 30 405 33.3579 405 37.5Z" fill="#E4C1F9"/>
<path d="M435 37.5C435 41.6421 431.642 45 427.5 45C423.358 45 420 41.6421 420 37.5C420 33.3579 423.358 30 427.5 30C431.642 30 435 33.3579 435 37.5Z" fill="#E4C1F9"/>
<path d="M465 37.5C465 41.6421 461.642 45 457.5 45C453.358 45 450 41.6421 450 37.5C450 33.3579 453.358 30 457.5 30C461.642 30 465 33.3579 465 37.5Z" fill="#E4C1F9"/>
<path d="M255 7.5C255 11.6421 251.642 15 247.5 15C243.358 15 240 11.6421 240 7.5C240 3.35786 243.358 0 247.5 0C251.642 0 255 3.35786 255 7.5Z" fill="#E4C1F9"/>
<path d="M285 7.5C285 11.6421 281.642 15 277.5 15C273.358 15 270 11.6421 270 7.5C270 3.35786 273.358 0 277.5 0C281.642 0 285 3.35786 285 7.5Z" fill="#E4C1F9"/>
<path d="M315 7.5C315 11.6421 311.642 15 307.5 15C303.358 15 300 11.6421 300 7.5C300 3.35786 303.358 0 307.5 0C311.642 0 315 3.35786 315 7.5Z" fill="#E4C1F9"/>
<path d="M345 7.5C345 11.6421 341.642 15 337.5 15C333.358 15 330 11.6421 330 7.5C330 3.35786 333.358 0 337.5 0C341.642 0 345 3.35786 345 7.5Z" fill="#E4C1F9"/>
<path d="M375 7.5C375 11.6421 371.642 15 367.5 15C363.358 15 360 11.6421 360 7.5C360 3.35786 363.358 0 367.5 0C371.642 0 375 3.35786 375 7.5Z" fill="#E4C1F9"/>
<path d="M405 7.5C405 11.6421 401.642 15 397.5 15C393.358 15 390 11.6421 390 7.5C390 3.35786 393.358 0 397.5 0C401.642 0 405 3.35786 405 7.5Z" fill="#E4C1F9"/>
<path d="M435 7.5C435 11.6421 431.642 15 427.5 15C423.358 15 420 11.6421 420 7.5C420 3.35786 423.358 0 427.5 0C431.642 0 435 3.35786 435 7.5Z" fill="#E4C1F9"/>
<path d="M465 7.5C465 11.6421 461.642 15 457.5 15C453.358 15 450 11.6421 450 7.5C450 3.35786 453.358 0 457.5 0C461.642 0 465 3.35786 465 7.5Z" fill="#E4C1F9"/>
<path d="M15 337.5C15 341.642 11.6421 345 7.5 345C3.35786 345 0 341.642 0 337.5C0 333.358 3.35786 330 7.5 330C11.6421 330 15 333.358 15 337.5Z" fill="#E4C1F9"/>
<path d="M45 337.5C45 341.642 41.6421 345 37.5 345C33.3579 345 30 341.642 30 337.5C30 333.358 33.3579 330 37.5 330C41.6421 330 45 333.358 45 337.5Z" fill="#E4C1F9"/>
<path d="M75 337.5C75 341.642 71.6421 345 67.5 345C63.3579 345 60 341.642 60 337.5C60 333.358 63.3579 330 67.5 330C71.6421 330 75 333.358 75 337.5Z" fill="#E4C1F9"/>
<path d="M105 337.5C105 341.642 101.642 345 97.5 345C93.3579 345 90 341.642 90 337.5C90 333.358 93.3579 330 97.5 330C101.642 330 105 333.358 105 337.5Z" fill="#E4C1F9"/>
<path d="M135 337.5C135 341.642 131.642 345 127.5 345C123.358 345 120 341.642 120 337.5C120 333.358 123.358 330 127.5 330C131.642 330 135 333.358 135 337.5Z" fill="#E4C1F9"/>
<path d="M165 337.5C165 341.642 161.642 345 157.5 345C153.358 345 150 341.642 150 337.5C150 333.358 153.358 330 157.5 330C161.642 330 165 333.358 165 337.5Z" fill="#E4C1F9"/>
<path d="M195 337.5C195 341.642 191.642 345 187.5 345C183.358 345 180 341.642 180 337.5C180 333.358 183.358 330 187.5 330C191.642 330 195 333.358 195 337.5Z" fill="#E4C1F9"/>
<path d="M225 337.5C225 341.642 221.642 345 217.5 345C213.358 345 210 341.642 210 337.5C210 333.358 213.358 330 217.5 330C221.642 330 225 333.358 225 337.5Z" fill="#E4C1F9"/>
<path d="M15 307.5C15 311.642 11.6421 315 7.5 315C3.35786 315 0 311.642 0 307.5C0 303.358 3.35786 300 7.5 300C11.6421 300 15 303.358 15 307.5Z" fill="#E4C1F9"/>
<path d="M45 307.5C45 311.642 41.6421 315 37.5 315C33.3579 315 30 311.642 30 307.5C30 303.358 33.3579 300 37.5 300C41.6421 300 45 303.358 45 307.5Z" fill="#E4C1F9"/>
<path d="M75 307.5C75 311.642 71.6421 315 67.5 315C63.3579 315 60 311.642 60 307.5C60 303.358 63.3579 300 67.5 300C71.6421 300 75 303.358 75 307.5Z" fill="#E4C1F9"/>
<path d="M105 307.5C105 311.642 101.642 315 97.5 315C93.3579 315 90 311.642 90 307.5C90 303.358 93.3579 300 97.5 300C101.642 300 105 303.358 105 307.5Z" fill="#E4C1F9"/>
<path d="M135 307.5C135 311.642 131.642 315 127.5 315C123.358 315 120 311.642 120 307.5C120 303.358 123.358 300 127.5 300C131.642 300 135 303.358 135 307.5Z" fill="#E4C1F9"/>
<path d="M165 307.5C165 311.642 161.642 315 157.5 315C153.358 315 150 311.642 150 307.5C150 303.358 153.358 300 157.5 300C161.642 300 165 303.358 165 307.5Z" fill="#E4C1F9"/>
<path d="M195 307.5C195 311.642 191.642 315 187.5 315C183.358 315 180 311.642 180 307.5C180 303.358 183.358 300 187.5 300C191.642 300 195 303.358 195 307.5Z" fill="#E4C1F9"/>
<path d="M225 307.5C225 311.642 221.642 315 217.5 315C213.358 315 210 311.642 210 307.5C210 303.358 213.358 300 217.5 300C221.642 300 225 303.358 225 307.5Z" fill="#E4C1F9"/>
<path d="M15 277.5C15 281.642 11.6421 285 7.5 285C3.35786 285 0 281.642 0 277.5C0 273.358 3.35786 270 7.5 270C11.6421 270 15 273.358 15 277.5Z" fill="#E4C1F9"/>
<path d="M45 277.5C45 281.642 41.6421 285 37.5 285C33.3579 285 30 281.642 30 277.5C30 273.358 33.3579 270 37.5 270C41.6421 270 45 273.358 45 277.5Z" fill="#E4C1F9"/>
<path d="M75 277.5C75 281.642 71.6421 285 67.5 285C63.3579 285 60 281.642 60 277.5C60 273.358 63.3579 270 67.5 270C71.6421 270 75 273.358 75 277.5Z" fill="#E4C1F9"/>
<path d="M105 277.5C105 281.642 101.642 285 97.5 285C93.3579 285 90 281.642 90 277.5C90 273.358 93.3579 270 97.5 270C101.642 270 105 273.358 105 277.5Z" fill="#E4C1F9"/>
<path d="M135 277.5C135 281.642 131.642 285 127.5 285C123.358 285 120 281.642 120 277.5C120 273.358 123.358 270 127.5 270C131.642 270 135 273.358 135 277.5Z" fill="#E4C1F9"/>
<path d="M165 277.5C165 281.642 161.642 285 157.5 285C153.358 285 150 281.642 150 277.5C150 273.358 153.358 270 157.5 270C161.642 270 165 273.358 165 277.5Z" fill="#E4C1F9"/>
<path d="M195 277.5C195 281.642 191.642 285 187.5 285C183.358 285 180 281.642 180 277.5C180 273.358 183.358 270 187.5 270C191.642 270 195 273.358 195 277.5Z" fill="#E4C1F9"/>
<path d="M225 277.5C225 281.642 221.642 285 217.5 285C213.358 285 210 281.642 210 277.5C210 273.358 213.358 270 217.5 270C221.642 270 225 273.358 225 277.5Z" fill="#E4C1F9"/>
<path d="M15 247.5C15 251.642 11.6421 255 7.5 255C3.35786 255 0 251.642 0 247.5C0 243.358 3.35786 240 7.5 240C11.6421 240 15 243.358 15 247.5Z" fill="#E4C1F9"/>
<path d="M45 247.5C45 251.642 41.6421 255 37.5 255C33.3579 255 30 251.642 30 247.5C30 243.358 33.3579 240 37.5 240C41.6421 240 45 243.358 45 247.5Z" fill="#E4C1F9"/>
<path d="M75 247.5C75 251.642 71.6421 255 67.5 255C63.3579 255 60 251.642 60 247.5C60 243.358 63.3579 240 67.5 240C71.6421 240 75 243.358 75 247.5Z" fill="#E4C1F9"/>
<path d="M105 247.5C105 251.642 101.642 255 97.5 255C93.3579 255 90 251.642 90 247.5C90 243.358 93.3579 240 97.5 240C101.642 240 105 243.358 105 247.5Z" fill="#E4C1F9"/>
<path d="M135 247.5C135 251.642 131.642 255 127.5 255C123.358 255 120 251.642 120 247.5C120 243.358 123.358 240 127.5 240C131.642 240 135 243.358 135 247.5Z" fill="#E4C1F9"/>
<path d="M165 247.5C165 251.642 161.642 255 157.5 255C153.358 255 150 251.642 150 247.5C150 243.358 153.358 240 157.5 240C161.642 240 165 243.358 165 247.5Z" fill="#E4C1F9"/>
<path d="M195 247.5C195 251.642 191.642 255 187.5 255C183.358 255 180 251.642 180 247.5C180 243.358 183.358 240 187.5 240C191.642 240 195 243.358 195 247.5Z" fill="#E4C1F9"/>
<path d="M225 247.5C225 251.642 221.642 255 217.5 255C213.358 255 210 251.642 210 247.5C210 243.358 213.358 240 217.5 240C221.642 240 225 243.358 225 247.5Z" fill="#E4C1F9"/>
<path d="M15 217.5C15 221.642 11.6421 225 7.5 225C3.35786 225 0 221.642 0 217.5C0 213.358 3.35786 210 7.5 210C11.6421 210 15 213.358 15 217.5Z" fill="#E4C1F9"/>
<path d="M45 217.5C45 221.642 41.6421 225 37.5 225C33.3579 225 30 221.642 30 217.5C30 213.358 33.3579 210 37.5 210C41.6421 210 45 213.358 45 217.5Z" fill="#E4C1F9"/>
<path d="M75 217.5C75 221.642 71.6421 225 67.5 225C63.3579 225 60 221.642 60 217.5C60 213.358 63.3579 210 67.5 210C71.6421 210 75 213.358 75 217.5Z" fill="#E4C1F9"/>
<path d="M105 217.5C105 221.642 101.642 225 97.5 225C93.3579 225 90 221.642 90 217.5C90 213.358 93.3579 210 97.5 210C101.642 210 105 213.358 105 217.5Z" fill="#E4C1F9"/>
<path d="M135 217.5C135 221.642 131.642 225 127.5 225C123.358 225 120 221.642 120 217.5C120 213.358 123.358 210 127.5 210C131.642 210 135 213.358 135 217.5Z" fill="#E4C1F9"/>
<path d="M165 217.5C165 221.642 161.642 225 157.5 225C153.358 225 150 221.642 150 217.5C150 213.358 153.358 210 157.5 210C161.642 210 165 213.358 165 217.5Z" fill="#E4C1F9"/>
<path d="M195 217.5C195 221.642 191.642 225 187.5 225C183.358 225 180 221.642 180 217.5C180 213.358 183.358 210 187.5 210C191.642 210 195 213.358 195 217.5Z" fill="#E4C1F9"/>
<path d="M225 217.5C225 221.642 221.642 225 217.5 225C213.358 225 210 221.642 210 217.5C210 213.358 213.358 210 217.5 210C221.642 210 225 213.358 225 217.5Z" fill="#E4C1F9"/>
<path d="M15 187.5C15 191.642 11.6421 195 7.5 195C3.35786 195 0 191.642 0 187.5C0 183.358 3.35786 180 7.5 180C11.6421 180 15 183.358 15 187.5Z" fill="#E4C1F9"/>
<path d="M45 187.5C45 191.642 41.6421 195 37.5 195C33.3579 195 30 191.642 30 187.5C30 183.358 33.3579 180 37.5 180C41.6421 180 45 183.358 45 187.5Z" fill="#E4C1F9"/>
<path d="M75 187.5C75 191.642 71.6421 195 67.5 195C63.3579 195 60 191.642 60 187.5C60 183.358 63.3579 180 67.5 180C71.6421 180 75 183.358 75 187.5Z" fill="#E4C1F9"/>
<path d="M105 187.5C105 191.642 101.642 195 97.5 195C93.3579 195 90 191.642 90 187.5C90 183.358 93.3579 180 97.5 180C101.642 180 105 183.358 105 187.5Z" fill="#E4C1F9"/>
<path d="M135 187.5C135 191.642 131.642 195 127.5 195C123.358 195 120 191.642 120 187.5C120 183.358 123.358 180 127.5 180C131.642 180 135 183.358 135 187.5Z" fill="#E4C1F9"/>
<path d="M165 187.5C165 191.642 161.642 195 157.5 195C153.358 195 150 191.642 150 187.5C150 183.358 153.358 180 157.5 180C161.642 180 165 183.358 165 187.5Z" fill="#E4C1F9"/>
<path d="M195 187.5C195 191.642 191.642 195 187.5 195C183.358 195 180 191.642 180 187.5C180 183.358 183.358 180 187.5 180C191.642 180 195 183.358 195 187.5Z" fill="#E4C1F9"/>
<path d="M225 187.5C225 191.642 221.642 195 217.5 195C213.358 195 210 191.642 210 187.5C210 183.358 213.358 180 217.5 180C221.642 180 225 183.358 225 187.5Z" fill="#E4C1F9"/>
<path d="M255 337.5C255 341.642 251.642 345 247.5 345C243.358 345 240 341.642 240 337.5C240 333.358 243.358 330 247.5 330C251.642 330 255 333.358 255 337.5Z" fill="#E4C1F9"/>
<path d="M285 337.5C285 341.642 281.642 345 277.5 345C273.358 345 270 341.642 270 337.5C270 333.358 273.358 330 277.5 330C281.642 330 285 333.358 285 337.5Z" fill="#E4C1F9"/>
<path d="M315 337.5C315 341.642 311.642 345 307.5 345C303.358 345 300 341.642 300 337.5C300 333.358 303.358 330 307.5 330C311.642 330 315 333.358 315 337.5Z" fill="#E4C1F9"/>
<path d="M345 337.5C345 341.642 341.642 345 337.5 345C333.358 345 330 341.642 330 337.5C330 333.358 333.358 330 337.5 330C341.642 330 345 333.358 345 337.5Z" fill="#E4C1F9"/>
<path d="M375 337.5C375 341.642 371.642 345 367.5 345C363.358 345 360 341.642 360 337.5C360 333.358 363.358 330 367.5 330C371.642 330 375 333.358 375 337.5Z" fill="#E4C1F9"/>
<path d="M405 337.5C405 341.642 401.642 345 397.5 345C393.358 345 390 341.642 390 337.5C390 333.358 393.358 330 397.5 330C401.642 330 405 333.358 405 337.5Z" fill="#E4C1F9"/>
<path d="M435 337.5C435 341.642 431.642 345 427.5 345C423.358 345 420 341.642 420 337.5C420 333.358 423.358 330 427.5 330C431.642 330 435 333.358 435 337.5Z" fill="#E4C1F9"/>
<path d="M465 337.5C465 341.642 461.642 345 457.5 345C453.358 345 450 341.642 450 337.5C450 333.358 453.358 330 457.5 330C461.642 330 465 333.358 465 337.5Z" fill="#E4C1F9"/>
<path d="M255 307.5C255 311.642 251.642 315 247.5 315C243.358 315 240 311.642 240 307.5C240 303.358 243.358 300 247.5 300C251.642 300 255 303.358 255 307.5Z" fill="#E4C1F9"/>
<path d="M285 307.5C285 311.642 281.642 315 277.5 315C273.358 315 270 311.642 270 307.5C270 303.358 273.358 300 277.5 300C281.642 300 285 303.358 285 307.5Z" fill="#E4C1F9"/>
<path d="M315 307.5C315 311.642 311.642 315 307.5 315C303.358 315 300 311.642 300 307.5C300 303.358 303.358 300 307.5 300C311.642 300 315 303.358 315 307.5Z" fill="#E4C1F9"/>
<path d="M345 307.5C345 311.642 341.642 315 337.5 315C333.358 315 330 311.642 330 307.5C330 303.358 333.358 300 337.5 300C341.642 300 345 303.358 345 307.5Z" fill="#E4C1F9"/>
<path d="M375 307.5C375 311.642 371.642 315 367.5 315C363.358 315 360 311.642 360 307.5C360 303.358 363.358 300 367.5 300C371.642 300 375 303.358 375 307.5Z" fill="#E4C1F9"/>
<path d="M405 307.5C405 311.642 401.642 315 397.5 315C393.358 315 390 311.642 390 307.5C390 303.358 393.358 300 397.5 300C401.642 300 405 303.358 405 307.5Z" fill="#E4C1F9"/>
<path d="M435 307.5C435 311.642 431.642 315 427.5 315C423.358 315 420 311.642 420 307.5C420 303.358 423.358 300 427.5 300C431.642 300 435 303.358 435 307.5Z" fill="#E4C1F9"/>
<path d="M465 307.5C465 311.642 461.642 315 457.5 315C453.358 315 450 311.642 450 307.5C450 303.358 453.358 300 457.5 300C461.642 300 465 303.358 465 307.5Z" fill="#E4C1F9"/>
<path d="M255 277.5C255 281.642 251.642 285 247.5 285C243.358 285 240 281.642 240 277.5C240 273.358 243.358 270 247.5 270C251.642 270 255 273.358 255 277.5Z" fill="#E4C1F9"/>
<path d="M285 277.5C285 281.642 281.642 285 277.5 285C273.358 285 270 281.642 270 277.5C270 273.358 273.358 270 277.5 270C281.642 270 285 273.358 285 277.5Z" fill="#E4C1F9"/>
<path d="M315 277.5C315 281.642 311.642 285 307.5 285C303.358 285 300 281.642 300 277.5C300 273.358 303.358 270 307.5 270C311.642 270 315 273.358 315 277.5Z" fill="#E4C1F9"/>
<path d="M345 277.5C345 281.642 341.642 285 337.5 285C333.358 285 330 281.642 330 277.5C330 273.358 333.358 270 337.5 270C341.642 270 345 273.358 345 277.5Z" fill="#E4C1F9"/>
<path d="M375 277.5C375 281.642 371.642 285 367.5 285C363.358 285 360 281.642 360 277.5C360 273.358 363.358 270 367.5 270C371.642 270 375 273.358 375 277.5Z" fill="#E4C1F9"/>
<path d="M405 277.5C405 281.642 401.642 285 397.5 285C393.358 285 390 281.642 390 277.5C390 273.358 393.358 270 397.5 270C401.642 270 405 273.358 405 277.5Z" fill="#E4C1F9"/>
<path d="M435 277.5C435 281.642 431.642 285 427.5 285C423.358 285 420 281.642 420 277.5C420 273.358 423.358 270 427.5 270C431.642 270 435 273.358 435 277.5Z" fill="#E4C1F9"/>
<path d="M465 277.5C465 281.642 461.642 285 457.5 285C453.358 285 450 281.642 450 277.5C450 273.358 453.358 270 457.5 270C461.642 270 465 273.358 465 277.5Z" fill="#E4C1F9"/>
<path d="M255 247.5C255 251.642 251.642 255 247.5 255C243.358 255 240 251.642 240 247.5C240 243.358 243.358 240 247.5 240C251.642 240 255 243.358 255 247.5Z" fill="#E4C1F9"/>
<path d="M285 247.5C285 251.642 281.642 255 277.5 255C273.358 255 270 251.642 270 247.5C270 243.358 273.358 240 277.5 240C281.642 240 285 243.358 285 247.5Z" fill="#E4C1F9"/>
<path d="M315 247.5C315 251.642 311.642 255 307.5 255C303.358 255 300 251.642 300 247.5C300 243.358 303.358 240 307.5 240C311.642 240 315 243.358 315 247.5Z" fill="#E4C1F9"/>
<path d="M345 247.5C345 251.642 341.642 255 337.5 255C333.358 255 330 251.642 330 247.5C330 243.358 333.358 240 337.5 240C341.642 240 345 243.358 345 247.5Z" fill="#E4C1F9"/>
<path d="M375 247.5C375 251.642 371.642 255 367.5 255C363.358 255 360 251.642 360 247.5C360 243.358 363.358 240 367.5 240C371.642 240 375 243.358 375 247.5Z" fill="#E4C1F9"/>
<path d="M405 247.5C405 251.642 401.642 255 397.5 255C393.358 255 390 251.642 390 247.5C390 243.358 393.358 240 397.5 240C401.642 240 405 243.358 405 247.5Z" fill="#E4C1F9"/>
<path d="M435 247.5C435 251.642 431.642 255 427.5 255C423.358 255 420 251.642 420 247.5C420 243.358 423.358 240 427.5 240C431.642 240 435 243.358 435 247.5Z" fill="#E4C1F9"/>
<path d="M465 247.5C465 251.642 461.642 255 457.5 255C453.358 255 450 251.642 450 247.5C450 243.358 453.358 240 457.5 240C461.642 240 465 243.358 465 247.5Z" fill="#E4C1F9"/>
<path d="M255 217.5C255 221.642 251.642 225 247.5 225C243.358 225 240 221.642 240 217.5C240 213.358 243.358 210 247.5 210C251.642 210 255 213.358 255 217.5Z" fill="#E4C1F9"/>
<path d="M285 217.5C285 221.642 281.642 225 277.5 225C273.358 225 270 221.642 270 217.5C270 213.358 273.358 210 277.5 210C281.642 210 285 213.358 285 217.5Z" fill="#E4C1F9"/>
<path d="M315 217.5C315 221.642 311.642 225 307.5 225C303.358 225 300 221.642 300 217.5C300 213.358 303.358 210 307.5 210C311.642 210 315 213.358 315 217.5Z" fill="#E4C1F9"/>
<path d="M345 217.5C345 221.642 341.642 225 337.5 225C333.358 225 330 221.642 330 217.5C330 213.358 333.358 210 337.5 210C341.642 210 345 213.358 345 217.5Z" fill="#E4C1F9"/>
<path d="M375 217.5C375 221.642 371.642 225 367.5 225C363.358 225 360 221.642 360 217.5C360 213.358 363.358 210 367.5 210C371.642 210 375 213.358 375 217.5Z" fill="#E4C1F9"/>
<path d="M405 217.5C405 221.642 401.642 225 397.5 225C393.358 225 390 221.642 390 217.5C390 213.358 393.358 210 397.5 210C401.642 210 405 213.358 405 217.5Z" fill="#E4C1F9"/>
<path d="M435 217.5C435 221.642 431.642 225 427.5 225C423.358 225 420 221.642 420 217.5C420 213.358 423.358 210 427.5 210C431.642 210 435 213.358 435 217.5Z" fill="#E4C1F9"/>
<path d="M465 217.5C465 221.642 461.642 225 457.5 225C453.358 225 450 221.642 450 217.5C450 213.358 453.358 210 457.5 210C461.642 210 465 213.358 465 217.5Z" fill="#E4C1F9"/>
<path d="M255 187.5C255 191.642 251.642 195 247.5 195C243.358 195 240 191.642 240 187.5C240 183.358 243.358 180 247.5 180C251.642 180 255 183.358 255 187.5Z" fill="#E4C1F9"/>
<path d="M285 187.5C285 191.642 281.642 195 277.5 195C273.358 195 270 191.642 270 187.5C270 183.358 273.358 180 277.5 180C281.642 180 285 183.358 285 187.5Z" fill="#E4C1F9"/>
<path d="M315 187.5C315 191.642 311.642 195 307.5 195C303.358 195 300 191.642 300 187.5C300 183.358 303.358 180 307.5 180C311.642 180 315 183.358 315 187.5Z" fill="#E4C1F9"/>
<path d="M345 187.5C345 191.642 341.642 195 337.5 195C333.358 195 330 191.642 330 187.5C330 183.358 333.358 180 337.5 180C341.642 180 345 183.358 345 187.5Z" fill="#E4C1F9"/>
<path d="M375 187.5C375 191.642 371.642 195 367.5 195C363.358 195 360 191.642 360 187.5C360 183.358 363.358 180 367.5 180C371.642 180 375 183.358 375 187.5Z" fill="#E4C1F9"/>
<path d="M405 187.5C405 191.642 401.642 195 397.5 195C393.358 195 390 191.642 390 187.5C390 183.358 393.358 180 397.5 180C401.642 180 405 183.358 405 187.5Z" fill="#E4C1F9"/>
<path d="M435 187.5C435 191.642 431.642 195 427.5 195C423.358 195 420 191.642 420 187.5C420 183.358 423.358 180 427.5 180C431.642 180 435 183.358 435 187.5Z" fill="#E4C1F9"/>
<path d="M465 187.5C465 191.642 461.642 195 457.5 195C453.358 195 450 191.642 450 187.5C450 183.358 453.358 180 457.5 180C461.642 180 465 183.358 465 187.5Z" fill="#E4C1F9"/>
</svg>
