<svg width="50" height="50" viewBox="0 0 50 50" fill="none" xmlns="http://www.w3.org/2000/svg">
<path d="M10 5C10 7.76142 7.76142 10 5 10C2.23858 10 0 7.76142 0 5C0 2.23858 2.23858 0 5 0C7.76142 0 10 2.23858 10 5Z" fill="black"/>
<path d="M30 5C30 7.76142 27.7614 10 25 10C22.2386 10 20 7.76142 20 5C20 2.23858 22.2386 0 25 0C27.7614 0 30 2.23858 30 5Z" fill="black"/>
<path d="M50 5C50 7.76142 47.7614 10 45 10C42.2386 10 40 7.76142 40 5C40 2.23858 42.2386 0 45 0C47.7614 0 50 2.23858 50 5Z" fill="black"/>
<path d="M10 25C10 27.7614 7.76142 30 5 30C2.23858 30 0 27.7614 0 25C0 22.2386 2.23858 20 5 20C7.76142 20 10 22.2386 10 25Z" fill="black"/>
<path d="M30 25C30 27.7614 27.7614 30 25 30C22.2386 30 20 27.7614 20 25C20 22.2386 22.2386 20 25 20C27.7614 20 30 22.2386 30 25Z" fill="black"/>
<path d="M50 25C50 27.7614 47.7614 30 45 30C42.2386 30 40 27.7614 40 25C40 22.2386 42.2386 20 45 20C47.7614 20 50 22.2386 50 25Z" fill="black"/>
<path d="M10 45C10 47.7614 7.76142 50 5 50C2.23858 50 0 47.7614 0 45C0 42.2386 2.23858 40 5 40C7.76142 40 10 42.2386 10 45Z" fill="black"/>
<path d="M30 45C30 47.7614 27.7614 50 25 50C22.2386 50 20 47.7614 20 45C20 42.2386 22.2386 40 25 40C27.7614 40 30 42.2386 30 45Z" fill="black"/>
<path d="M50 45C50 47.7614 47.7614 50 45 50C42.2386 50 40 47.7614 40 45C40 42.2386 42.2386 40 45 40C47.7614 40 50 42.2386 50 45Z" fill="black"/>
</svg>
