<svg width="225" height="135" viewBox="0 0 225 135" fill="none" xmlns="http://www.w3.org/2000/svg">
<path d="M15 127.5C15 131.642 11.6421 135 7.5 135C3.35786 135 0 131.642 0 127.5C0 123.358 3.35786 120 7.5 120C11.6421 120 15 123.358 15 127.5Z" fill="#E4C1F9"/>
<path d="M45 127.5C45 131.642 41.6421 135 37.5 135C33.3579 135 30 131.642 30 127.5C30 123.358 33.3579 120 37.5 120C41.6421 120 45 123.358 45 127.5Z" fill="#E4C1F9"/>
<path d="M75 127.5C75 131.642 71.6421 135 67.5 135C63.3579 135 60 131.642 60 127.5C60 123.358 63.3579 120 67.5 120C71.6421 120 75 123.358 75 127.5Z" fill="#E4C1F9"/>
<path d="M105 127.5C105 131.642 101.642 135 97.5 135C93.3579 135 90 131.642 90 127.5C90 123.358 93.3579 120 97.5 120C101.642 120 105 123.358 105 127.5Z" fill="#E4C1F9"/>
<path d="M135 127.5C135 131.642 131.642 135 127.5 135C123.358 135 120 131.642 120 127.5C120 123.358 123.358 120 127.5 120C131.642 120 135 123.358 135 127.5Z" fill="#E4C1F9"/>
<path d="M165 127.5C165 131.642 161.642 135 157.5 135C153.358 135 150 131.642 150 127.5C150 123.358 153.358 120 157.5 120C161.642 120 165 123.358 165 127.5Z" fill="#E4C1F9"/>
<path d="M195 127.5C195 131.642 191.642 135 187.5 135C183.358 135 180 131.642 180 127.5C180 123.358 183.358 120 187.5 120C191.642 120 195 123.358 195 127.5Z" fill="#E4C1F9"/>
<path d="M225 127.5C225 131.642 221.642 135 217.5 135C213.358 135 210 131.642 210 127.5C210 123.358 213.358 120 217.5 120C221.642 120 225 123.358 225 127.5Z" fill="#E4C1F9"/>
<path d="M15 97.5C15 101.642 11.6421 105 7.5 105C3.35786 105 0 101.642 0 97.5C0 93.3579 3.35786 90 7.5 90C11.6421 90 15 93.3579 15 97.5Z" fill="#E4C1F9"/>
<path d="M45 97.5C45 101.642 41.6421 105 37.5 105C33.3579 105 30 101.642 30 97.5C30 93.3579 33.3579 90 37.5 90C41.6421 90 45 93.3579 45 97.5Z" fill="#E4C1F9"/>
<path d="M75 97.5C75 101.642 71.6421 105 67.5 105C63.3579 105 60 101.642 60 97.5C60 93.3579 63.3579 90 67.5 90C71.6421 90 75 93.3579 75 97.5Z" fill="#E4C1F9"/>
<path d="M105 97.5C105 101.642 101.642 105 97.5 105C93.3579 105 90 101.642 90 97.5C90 93.3579 93.3579 90 97.5 90C101.642 90 105 93.3579 105 97.5Z" fill="#E4C1F9"/>
<path d="M135 97.5C135 101.642 131.642 105 127.5 105C123.358 105 120 101.642 120 97.5C120 93.3579 123.358 90 127.5 90C131.642 90 135 93.3579 135 97.5Z" fill="#E4C1F9"/>
<path d="M165 97.5C165 101.642 161.642 105 157.5 105C153.358 105 150 101.642 150 97.5C150 93.3579 153.358 90 157.5 90C161.642 90 165 93.3579 165 97.5Z" fill="#E4C1F9"/>
<path d="M195 97.5C195 101.642 191.642 105 187.5 105C183.358 105 180 101.642 180 97.5C180 93.3579 183.358 90 187.5 90C191.642 90 195 93.3579 195 97.5Z" fill="#E4C1F9"/>
<path d="M225 97.5C225 101.642 221.642 105 217.5 105C213.358 105 210 101.642 210 97.5C210 93.3579 213.358 90 217.5 90C221.642 90 225 93.3579 225 97.5Z" fill="#E4C1F9"/>
<path d="M15 67.5C15 71.6421 11.6421 75 7.5 75C3.35786 75 0 71.6421 0 67.5C0 63.3579 3.35786 60 7.5 60C11.6421 60 15 63.3579 15 67.5Z" fill="#E4C1F9"/>
<path d="M45 67.5C45 71.6421 41.6421 75 37.5 75C33.3579 75 30 71.6421 30 67.5C30 63.3579 33.3579 60 37.5 60C41.6421 60 45 63.3579 45 67.5Z" fill="#E4C1F9"/>
<path d="M75 67.5C75 71.6421 71.6421 75 67.5 75C63.3579 75 60 71.6421 60 67.5C60 63.3579 63.3579 60 67.5 60C71.6421 60 75 63.3579 75 67.5Z" fill="#E4C1F9"/>
<path d="M105 67.5C105 71.6421 101.642 75 97.5 75C93.3579 75 90 71.6421 90 67.5C90 63.3579 93.3579 60 97.5 60C101.642 60 105 63.3579 105 67.5Z" fill="#E4C1F9"/>
<path d="M135 67.5C135 71.6421 131.642 75 127.5 75C123.358 75 120 71.6421 120 67.5C120 63.3579 123.358 60 127.5 60C131.642 60 135 63.3579 135 67.5Z" fill="#E4C1F9"/>
<path d="M165 67.5C165 71.6421 161.642 75 157.5 75C153.358 75 150 71.6421 150 67.5C150 63.3579 153.358 60 157.5 60C161.642 60 165 63.3579 165 67.5Z" fill="#E4C1F9"/>
<path d="M195 67.5C195 71.6421 191.642 75 187.5 75C183.358 75 180 71.6421 180 67.5C180 63.3579 183.358 60 187.5 60C191.642 60 195 63.3579 195 67.5Z" fill="#E4C1F9"/>
<path d="M225 67.5C225 71.6421 221.642 75 217.5 75C213.358 75 210 71.6421 210 67.5C210 63.3579 213.358 60 217.5 60C221.642 60 225 63.3579 225 67.5Z" fill="#E4C1F9"/>
<path d="M15 37.5C15 41.6421 11.6421 45 7.5 45C3.35786 45 0 41.6421 0 37.5C0 33.3579 3.35786 30 7.5 30C11.6421 30 15 33.3579 15 37.5Z" fill="#E4C1F9"/>
<path d="M45 37.5C45 41.6421 41.6421 45 37.5 45C33.3579 45 30 41.6421 30 37.5C30 33.3579 33.3579 30 37.5 30C41.6421 30 45 33.3579 45 37.5Z" fill="#E4C1F9"/>
<path d="M75 37.5C75 41.6421 71.6421 45 67.5 45C63.3579 45 60 41.6421 60 37.5C60 33.3579 63.3579 30 67.5 30C71.6421 30 75 33.3579 75 37.5Z" fill="#E4C1F9"/>
<path d="M105 37.5C105 41.6421 101.642 45 97.5 45C93.3579 45 90 41.6421 90 37.5C90 33.3579 93.3579 30 97.5 30C101.642 30 105 33.3579 105 37.5Z" fill="#E4C1F9"/>
<path d="M135 37.5C135 41.6421 131.642 45 127.5 45C123.358 45 120 41.6421 120 37.5C120 33.3579 123.358 30 127.5 30C131.642 30 135 33.3579 135 37.5Z" fill="#E4C1F9"/>
<path d="M165 37.5C165 41.6421 161.642 45 157.5 45C153.358 45 150 41.6421 150 37.5C150 33.3579 153.358 30 157.5 30C161.642 30 165 33.3579 165 37.5Z" fill="#E4C1F9"/>
<path d="M195 37.5C195 41.6421 191.642 45 187.5 45C183.358 45 180 41.6421 180 37.5C180 33.3579 183.358 30 187.5 30C191.642 30 195 33.3579 195 37.5Z" fill="#E4C1F9"/>
<path d="M225 37.5C225 41.6421 221.642 45 217.5 45C213.358 45 210 41.6421 210 37.5C210 33.3579 213.358 30 217.5 30C221.642 30 225 33.3579 225 37.5Z" fill="#E4C1F9"/>
<path d="M15 7.5C15 11.6421 11.6421 15 7.5 15C3.35786 15 0 11.6421 0 7.5C0 3.35786 3.35786 0 7.5 0C11.6421 0 15 3.35786 15 7.5Z" fill="#E4C1F9"/>
<path d="M45 7.5C45 11.6421 41.6421 15 37.5 15C33.3579 15 30 11.6421 30 7.5C30 3.35786 33.3579 0 37.5 0C41.6421 0 45 3.35786 45 7.5Z" fill="#E4C1F9"/>
<path d="M75 7.5C75 11.6421 71.6421 15 67.5 15C63.3579 15 60 11.6421 60 7.5C60 3.35786 63.3579 0 67.5 0C71.6421 0 75 3.35786 75 7.5Z" fill="#E4C1F9"/>
<path d="M105 7.5C105 11.6421 101.642 15 97.5 15C93.3579 15 90 11.6421 90 7.5C90 3.35786 93.3579 0 97.5 0C101.642 0 105 3.35786 105 7.5Z" fill="#E4C1F9"/>
<path d="M135 7.5C135 11.6421 131.642 15 127.5 15C123.358 15 120 11.6421 120 7.5C120 3.35786 123.358 0 127.5 0C131.642 0 135 3.35786 135 7.5Z" fill="#E4C1F9"/>
<path d="M165 7.5C165 11.6421 161.642 15 157.5 15C153.358 15 150 11.6421 150 7.5C150 3.35786 153.358 0 157.5 0C161.642 0 165 3.35786 165 7.5Z" fill="#E4C1F9"/>
<path d="M195 7.5C195 11.6421 191.642 15 187.5 15C183.358 15 180 11.6421 180 7.5C180 3.35786 183.358 0 187.5 0C191.642 0 195 3.35786 195 7.5Z" fill="#E4C1F9"/>
<path d="M225 7.5C225 11.6421 221.642 15 217.5 15C213.358 15 210 11.6421 210 7.5C210 3.35786 213.358 0 217.5 0C221.642 0 225 3.35786 225 7.5Z" fill="#E4C1F9"/>
</svg>
